# This file uses meters as units for non-parametric coordinates.

mtllib Geo_Facade_ground.mtl
g default
v -300.000000 0.000000 0.000000
v 300.000000 0.000000 0.000000
v -300.000000 250.000000 0.000000
v 300.000000 250.000000 0.000000
v -300.000000 202.888611 0.000000
v 300.000000 202.888611 0.000000
v -300.000000 202.888611 8.236014
v 300.000000 202.888611 8.236014
v 300.000000 250.000000 11.683674
v -300.000000 250.000000 11.683674
vt 0.000938 0.998008
vt 0.000938 0.001992
vt 0.079144 0.001992
vt 0.079144 0.998008
vt 0.086504 0.998008
vt 0.086504 0.001992
vt 0.423304 0.001992
vt 0.423304 0.998008
vt 0.429882 0.998008
vt 0.429882 0.001992
vt 0.443554 0.001992
vt 0.443554 0.998008
vt 0.469695 0.001992
vt 0.469695 0.998008
vt 0.450299 0.998008
vt 0.450299 0.001992
vn 0.000000 -0.072986 0.997333
vn 0.000000 -0.072986 0.997333
vn 0.000000 -0.072986 0.997333
vn 0.000000 -0.072986 0.997333
vn 0.000000 0.000000 1.000000
vn 0.000000 0.000000 1.000000
vn 0.000000 0.000000 1.000000
vn 0.000000 0.000000 1.000000
vn 0.000000 -1.000000 0.000000
vn 0.000000 -1.000000 0.000000
vn 0.000000 -1.000000 0.000000
vn 0.000000 -1.000000 0.000000
vn 0.000000 1.000000 0.000000
vn 0.000000 1.000000 0.000000
vn 0.000000 1.000000 0.000000
vn 0.000000 1.000000 0.000000
s off
g Geo_EntireStreet:pPlane4
usemtl initialShadingGroup
f 7/1/1 8/2/2 9/3/3 10/4/4
f 1/5/5 2/6/6 6/7/7 5/8/8
f 5/9/9 6/10/10 8/11/11 7/12/12
f 4/13/13 3/14/14 10/15/15 9/16/16
