%YAML 1.1
%TAG !u! tag:unity3d.com,2011:
--- !u!21 &2100000
Material:
  serializedVersion: 6
  m_ObjectHideFlags: 0
  m_PrefabParentObject: {fileID: 0}
  m_PrefabInternal: {fileID: 0}
  m_Name: Store_Mat
  m_Shader: {fileID: 4800000, guid: f0bd5bc94277fa047bbe1cf411d29c45, type: 3}
  m_ShaderKeywords: TCP2_UV2_AS_NORMALS
  m_LightmapFlags: 4
  m_CustomRenderQueue: -1
  stringTagMap: {}
  m_SavedProperties:
    serializedVersion: 2
    m_TexEnvs:
    - first:
        name: <noninit>
      second:
        m_Texture: {fileID: 0}
        m_Scale: {x: 1, y: 1}
        m_Offset: {x: 0, y: 0}
    - first:
        name: _BumpMap
      second:
        m_Texture: {fileID: 2800000, guid: 9abc3558717964a47a84541d99a9c3b6, type: 3}
        m_Scale: {x: 1, y: 1}
        m_Offset: {x: 0, y: 0}
    - first:
        name: _Cube
      second:
        m_Texture: {fileID: 8900000, guid: e43f37fb7cae123499661902e064c27d, type: 3}
        m_Scale: {x: 1, y: 1}
        m_Offset: {x: 0, y: 0}
    - first:
        name: _MainTex
      second:
        m_Texture: {fileID: 2800000, guid: 98bbd7a169f7d6645a6e8c857bb544ea, type: 3}
        m_Scale: {x: 1, y: 1}
        m_Offset: {x: 0, y: 0}
    - first:
        name: _Mask1
      second:
        m_Texture: {fileID: 2800000, guid: 1552696da063c1d43a7a877ae595626e, type: 3}
        m_Scale: {x: 1, y: 1}
        m_Offset: {x: 0, y: 0}
    - first:
        name: _ParallaxMap
      second:
        m_Texture: {fileID: 0}
        m_Scale: {x: 1, y: 1}
        m_Offset: {x: 0, y: 0}
    - first:
        name: _ThresholdTex
      second:
        m_Texture: {fileID: 0}
        m_Scale: {x: 1, y: 1}
        m_Offset: {x: 0, y: 0}
    m_Floats:
    - first:
        name: <noninit>
      second: 0
    - first:
        name: _LightSmoothness
      second: 0
    - first:
        name: _LightThreshold
      second: 0.3
    - first:
        name: _Offset1
      second: 0
    - first:
        name: _Offset2
      second: 0
    - first:
        name: _Outline
      second: 300
    - first:
        name: _OutlineSize
      second: 0.02
    - first:
        name: _Parallax
      second: 0.005
    - first:
        name: _RampSmooth
      second: 0.001
    - first:
        name: _RampThreshold
      second: 0.465
    - first:
        name: _ReflectRoughness
      second: 0
    - first:
        name: _RimIntensity
      second: 0.5
    - first:
        name: _RimSize
      second: 1.5
    - first:
        name: _RimSmoothness
      second: 0.5
    - first:
        name: _ShadowIntensity
      second: 1
    - first:
        name: _Shininess
      second: 2
    - first:
        name: _SpecSmooth
      second: 0.05
    - first:
        name: _SpecularIntensity
      second: 0.5
    - first:
        name: _TexLod
      second: 5
    - first:
        name: _ZSmooth
      second: -0.5
    m_Colors:
    - first:
        name: <noninit>
      second: {r: 0, g: 1.6314199e-34, b: 0, a: 1.6314126e-34}
    - first:
        name: _Color
      second: {r: 0.66176474, g: 0.66176474, b: 0.66176474, a: 1}
    - first:
        name: _EmissionColor
      second: {r: 0, g: 0, b: 0, a: 1}
    - first:
        name: _HColor
      second: {r: 1, g: 1, b: 1, a: 1}
    - first:
        name: _HighlightColor
      second: {r: 1, g: 1, b: 1, a: 1}
    - first:
        name: _OutlineColor
      second: {r: 0, g: 0, b: 0, a: 1}
    - first:
        name: _ReflectColor
      second: {r: 1, g: 1, b: 1, a: 1}
    - first:
        name: _RimColor
      second: {r: 1, g: 1, b: 1, a: 1}
    - first:
        name: _SColor
      second: {r: 0.3, g: 0.3, b: 0.3, a: 1}
    - first:
        name: _ShadowColor
      second: {r: 0.25, g: 0.25, b: 0.25, a: 0.5}
    - first:
        name: _SpecColor
      second: {r: 1, g: 1, b: 1, a: 1}
